<svg width="32" height="32" viewBox="0 0 32 32" fill="none" xmlns="http://www.w3.org/2000/svg">
<path d="M23.755 9.377C22.7863 8.40837 21.504 7.87895 20.1353 7.87895C18.7667 7.87895 17.4804 8.41229 16.5118 9.38092L16.0059 9.8868L15.4922 9.37307C14.5236 8.40444 13.2334 7.86719 11.8647 7.86719C10.5 7.86719 9.21375 8.40052 8.24904 9.36523C7.28041 10.3339 6.74708 11.6201 6.751 12.9888C6.751 14.3574 7.28825 15.6398 8.25688 16.6084L15.6216 23.9731C15.7236 24.0751 15.8608 24.13 15.9942 24.13C16.1275 24.13 16.2647 24.079 16.3667 23.977L23.7471 16.6241C24.7157 15.6554 25.2491 14.3692 25.2491 13.0005C25.253 11.6319 24.7236 10.3456 23.755 9.377Z" fill="#0B0B0B"/>
</svg>
